{
  "variables": {
    "aws_access_key": "",
    "aws_secret_key": "",
    "aws_region": "us-east-1",
    "source_ami": "ami-0c55b159cbfafe1f0",
    "instance_type": "t2.micro",
    "ssh_username": "ubuntu"
  },

  "builders": [{
    "type": "amazon-ebs",
    "access_key": "{{user `aws_access_key`}}",
    "secret_key": "{{user `aws_secret_key`}}",
    "region": "{{user `aws_region`}}",
    "source_ami": "{{user `source_ami`}}",
    "instance_type": "{{user `instance_type`}}",
    "ssh_username": "{{user `ssh_username`}}",
    "ami_name": "Hardened Ubuntu {{timestamp}}"
  }],

  "provisioners": [
    {
      "type": "shell",
      "inline": [
        "sudo apt-get update",
        "sudo apt-get upgrade -y",
        "sudo apt-get install -y build-essential",
        "sudo apt-get install -y fail2ban",
        "sudo ufw allow OpenSSH",
        "sudo ufw enable",
        "sudo systemctl enable fail2ban",
        "sudo systemctl start fail2ban",
        "sudo rm /etc/update-motd.d/*",
        "sudo touch /etc/update-motd.d/00-header",
        "sudo chmod +x /etc/update-motd.d/00-header",
        "echo 'Welcome to my hardened Ubuntu AMI!' | sudo tee /etc/update-motd.d/00-header"
      ]
    }
  ]
}
